OLWTEF
…
Chapter 30: What is funny about Moores law? ICT and the Fourth Industrial Revolution

Transistor count

## # A tibble: 42 x 2
##    designer     n
##    <chr>    <int>
##  1 Intel       63
##  2 AMD         18
##  3 IBM         13
##  4 Apple       12
##  5 Fujitsu     10
##  6 Motorola     8
##  7 Qualcomm     8
##  8 Huawei       6
##  9 Acorn        4
## 10 Hitachi      4
## # ... with 32 more rows
…
